<svg width="139" height="177" viewBox="0 0 139 177" fill="none" xmlns="http://www.w3.org/2000/svg">
<g clip-path="url(#clip0)">
<path d="M139 136.547C138.402 140.349 138.023 144.17 137.206 147.913C134.535 159.971 128.734 169.892 117.112 175.495C115.318 176.366 113.165 176.921 111.172 176.921C82.8857 177.02 54.6192 176.98 26.3329 176.98C25.695 176.98 25.0371 177 24.3993 176.96C22.1268 176.822 21.1101 175.832 21.1301 173.594C21.3095 159.932 26.592 148.507 36.559 139.2C41.7618 134.349 47.8815 130.923 54.6591 128.825C52.6856 126.607 50.5328 124.627 48.9181 122.27C39.6089 108.806 46.9247 90.0346 62.9517 86.2922C65.1444 85.7774 65.7026 84.9458 65.6627 82.7677C65.5232 72.4712 65.6029 62.1748 65.6029 51.8783C65.6029 51.1061 65.6029 50.314 65.6029 49.3042C61.6958 49.819 58.4665 51.3833 55.7954 53.9178C52.3069 57.2444 50.2338 61.3035 49.9547 66.1944C49.9347 66.6894 49.7952 67.1844 49.7354 67.6794C49.4962 69.5209 48.4995 70.5505 46.5858 70.4713C44.6323 70.3921 43.9545 69.0853 43.6356 67.3824C43.197 65.0261 42.9379 62.551 42.0409 60.3531C39.0109 52.809 31.1968 48.235 23.1035 49.0072C15.1698 49.7398 8.33243 55.6603 6.53837 63.4024C6.25929 64.5905 6.19949 65.7983 6.02008 67.0062C5.72107 69.0061 4.52503 70.1149 2.79077 70.0159C1.01664 69.9169 -0.0597985 68.7289 3.5502e-06 66.6498C0.159476 59.6007 1.35552 52.7496 3.70773 46.0965C9.60821 29.3845 20.3726 16.7318 35.9411 8.21739C46.3865 2.51474 57.6891 -0.197981 69.6495 0.0198288C87.6898 0.356444 103.338 6.77193 116.315 19.1277C127.279 29.5627 133.937 42.4333 136.369 57.3632C136.867 60.3927 137.066 63.4618 137.246 66.531C137.365 68.6497 136.329 69.8575 134.575 69.9961C132.761 70.1545 131.445 69.0655 131.226 66.9072C130.707 61.3827 128.574 56.6701 124.209 53.1852C118.368 48.5122 111.75 47.6607 104.973 50.5715C98.2548 53.4426 94.5072 58.8284 93.67 66.0953C93.5703 66.8676 93.5903 67.6794 93.371 68.412C92.9125 69.8773 91.856 70.6099 90.2613 70.4911C88.7862 70.3723 87.9489 69.5803 87.5901 68.1348C86.7928 64.9865 86.3741 61.6401 84.9987 58.7492C82.4671 53.3634 77.8224 50.4328 71.7824 49.2844C71.7226 50.0368 71.6429 50.6507 71.6429 51.2645C71.6429 62.056 71.6828 72.8672 71.603 83.6587C71.5831 85.2824 72.1014 85.7576 73.6762 86.1338C83.1448 88.3317 89.2845 94.2522 91.6567 103.519C93.9092 112.291 91.3975 120.033 84.899 126.429C84.1415 127.181 83.2644 127.795 82.2279 128.646C83.8824 129.28 85.3575 129.874 86.8526 130.428C87.0918 130.508 87.4307 130.508 87.6699 130.409C90.9191 129.042 94.1484 127.597 97.4375 126.31C101.843 124.567 106.228 122.805 110.714 121.32C112.149 120.845 114.023 120.805 115.438 121.28C122.156 123.538 128.814 126.013 135.432 128.527C136.747 129.023 137.804 130.151 139 130.983C139 132.824 139 134.686 139 136.547ZM101.504 170.802C100.089 169.278 98.8329 168.01 97.6967 166.644C91.1184 158.625 88.6865 149.12 87.6101 139.101C87.5303 138.349 86.9921 137.319 86.3742 136.982C80.7328 134.052 74.6131 132.765 68.294 132.864C57.9482 133.022 48.6988 136.408 40.9844 143.358C32.8912 150.665 28.3263 159.773 27.3296 170.783C52.0677 170.802 76.6264 170.802 101.504 170.802ZM132.641 137.002C132.322 135.695 133.418 134.171 131.226 133.438C125.584 131.557 120.063 129.379 114.461 127.399C113.664 127.122 112.607 127.102 111.83 127.379C106.228 129.339 100.667 131.458 95.0654 133.438C93.8893 133.854 93.5504 134.389 93.5903 135.577C93.7896 141.893 94.866 148.071 97.1983 153.952C99.8894 160.724 104.255 166.129 110.773 169.733C112.388 170.624 113.923 170.862 115.358 169.694C118.388 167.238 121.777 165.021 124.249 162.07C130.289 154.863 131.903 146.012 132.641 137.002ZM68.6528 126.706C77.3241 126.924 86.2745 119.696 86.3143 109.123C86.3542 99.4994 78.1613 91.4405 68.593 91.4801C59.0047 91.5197 50.8318 99.638 50.9314 109.182C51.0311 119.756 60.0014 126.983 68.6528 126.706ZM127.378 47.7003C123.611 29.4835 95.6435 6.33631 78.3806 7.06894C83.4837 13.4646 86.7928 20.6523 88.7064 28.3549C90.6002 35.9782 91.8759 43.76 93.4308 51.5021C97.6568 46.9875 102.82 43.6609 109.338 43.0471C115.757 42.4135 121.797 43.5619 127.378 47.7003ZM9.94708 47.4429C22.3261 40.1562 33.7084 41.4235 44.1937 51.5813C46.0277 35.701 48.7786 20.2761 58.7456 7.14814C42.7585 5.44527 12.9571 30.1172 9.94708 47.4429ZM86.5536 50.017C86.3143 48.0567 86.1549 46.4925 85.9356 44.948C84.7396 36.5128 82.9854 28.2361 79.457 20.4147C76.9852 14.9497 73.8157 9.99947 68.7126 6.57392C56.6525 13.5636 51.1507 38.3147 50.9913 49.8586C61.0978 40.968 74.7327 40.0374 86.5536 50.017Z" fill="#A8B23B"/>
<path d="M109.797 148.249C112.827 145.398 115.498 142.903 118.169 140.408C118.747 139.873 119.285 139.279 119.943 138.864C121.358 137.933 122.734 138.23 123.83 139.398C124.986 140.626 125.006 142.032 123.85 143.24C120.142 147.121 116.395 151.001 112.587 154.783C111.112 156.229 109.518 156.17 107.983 154.724C106.149 153.001 104.395 151.219 102.72 149.358C101.444 147.952 101.524 145.992 102.8 144.942C104.255 143.774 105.75 143.933 107.066 145.2C108.082 146.21 108.979 147.338 109.797 148.249Z" fill="#A8B23B"/>
</g>
<defs>
<clipPath id="clip0">
<rect width="139" height="177" fill="white"/>
</clipPath>
</defs>
</svg>
