<svg width="153" height="170" viewBox="0 0 153 170" fill="none" xmlns="http://www.w3.org/2000/svg">
<g clip-path="url(#clip0)">
<path d="M1.79076 170C0.493372 169.087 0 167.882 0 166.257C0.0548191 150.807 0.0548191 135.358 0 119.89C0 118.41 0.475098 117.315 1.49839 116.292C13.321 104.513 25.1254 92.716 36.9115 80.8823C37.9896 79.7866 39.1591 79.3666 40.6757 79.3666C50.9452 79.4031 61.2146 79.3848 71.4658 79.3848C72.1053 79.3848 72.7449 79.3848 73.6403 79.3848C73.6403 76.1525 73.6768 72.9932 73.5854 69.8338C73.5672 69.4138 72.9094 68.939 72.4525 68.6286C63.5718 62.5656 51.8406 62.7482 43.1061 69.0303C42.7223 69.3042 42.3386 69.5964 41.9549 69.8704C39.9814 71.2948 39.1774 71.3131 37.2221 69.7608C32.2153 65.7614 26.4776 63.9535 20.1369 64.2092C14.7829 64.4283 9.86743 66.1084 5.60982 69.4686C5.33572 69.6878 5.0799 70.0347 4.76926 70.0895C3.67288 70.2721 2.39377 70.7652 1.53493 70.3817C0.767467 70.0347 0.0913651 68.6468 0.0730921 67.7155C-0.146184 56.9775 2.64959 46.9517 8.00358 37.7112C18.2365 20.1615 33.4944 8.80259 52.9369 3.50663C81.2418 -4.19989 107.336 0.621256 130.013 19.6867C142.785 30.4247 150.424 44.3585 152.525 61.0864C152.781 63.1865 152.817 65.3232 152.963 67.4415C153.055 68.7747 152.744 69.9069 151.465 70.5643C150.113 71.2583 148.98 70.8382 147.884 69.9434C144.741 67.3502 141.159 65.6519 137.157 64.8301C129.647 63.2778 122.758 64.684 116.564 69.1947C113.366 71.5139 113.238 71.5687 110.113 69.2677C101.415 62.8395 89.7936 62.5473 80.7667 68.4459C79.7069 69.1399 79.2684 69.8338 79.2866 71.1304C79.3597 76.9743 79.3232 82.7998 79.3232 88.6436C79.3232 89.2828 79.3232 89.9037 79.3232 90.6341C77.4228 90.6341 75.6686 90.6341 73.7316 90.6341C73.7316 88.8445 73.7316 87.0548 73.7316 85.1738C64.7048 85.1738 55.8789 85.1738 46.8703 85.1738C47.1809 85.5756 47.4185 85.9408 47.7109 86.233C57.3773 95.9118 67.062 105.591 76.765 115.233C77.2766 115.744 78.1537 116.183 78.8481 116.183C99.9717 116.237 121.095 116.219 142.219 116.219C142.402 116.219 142.566 116.183 142.95 116.146C142.621 115.726 142.383 115.361 142.073 115.069C132.406 105.39 122.722 95.711 113 86.0687C112.416 85.5026 111.392 85.1191 110.57 85.1191C103.078 85.046 95.5862 85.0825 87.948 85.0825C87.948 83.2381 87.948 81.4484 87.948 79.5309C88.4231 79.4944 88.9348 79.4396 89.4464 79.4396C97.1211 79.4396 104.796 79.4579 112.452 79.4031C113.932 79.3848 115.01 79.8779 116.052 80.9006C127.911 92.7525 139.789 104.568 151.575 116.475C152.342 117.26 152.909 118.611 152.927 119.707C153.018 135.284 152.963 150.844 153.018 166.421C153.018 168.01 152.452 169.124 151.228 170C101.415 170 51.603 170 1.79076 170ZM6.01182 62.3099C6.85238 61.9264 7.3823 61.6708 7.91222 61.4334C11.5303 59.7715 15.3311 58.8037 19.3146 58.5663C26.3131 58.1462 32.7087 59.9359 38.6292 63.6796C39.1225 63.99 40.1276 64.0266 40.6209 63.7161C52.2608 56.667 63.8642 56.6305 75.4676 63.7161C76.3264 64.2457 76.8563 64.1361 77.6603 63.6431C89.081 56.7035 100.575 56.6853 112.032 63.5518C113.073 64.1727 113.658 64.1727 114.663 63.5152C121.205 59.315 128.405 57.6349 136.079 58.895C139.734 59.4976 143.279 60.7759 146.86 61.7621C145.819 53.0146 142.932 44.6324 137.815 37.1268C124.878 18.2257 106.477 8.52866 84.0742 6.19113C68.469 4.56583 53.5582 7.43294 39.689 14.9386C26.9527 21.8416 17.0122 31.5204 10.8176 44.7603C8.24113 50.2388 6.61483 55.9731 6.01182 62.3099ZM73.622 164.284C73.6403 163.846 73.6768 163.572 73.6768 163.28C73.6768 149.31 73.6951 135.339 73.6403 121.369C73.6403 120.675 73.1834 119.817 72.6535 119.287C62.0552 108.622 51.4203 97.9937 40.7671 87.3653C40.4199 87.0183 40.0179 86.7078 39.6342 86.3791C39.3235 86.6531 39.1408 86.7991 38.9764 86.9635C28.177 97.7563 17.3776 108.549 6.61483 119.378C6.08492 119.926 5.73773 120.894 5.71946 121.661C5.66464 135.339 5.68291 149.017 5.68291 162.696C5.68291 163.207 5.73773 163.718 5.77427 164.211C9.57506 164.211 13.2479 164.211 17.0122 164.211C17.0122 163.444 17.0122 162.805 17.0122 162.148C17.0122 153.656 17.0122 145.164 17.0122 136.672C17.0122 134.116 17.9441 133.184 20.5389 133.184C25.6736 133.166 30.8083 133.184 35.9248 133.184C38.8119 133.184 39.6525 134.043 39.6525 137.001C39.6525 145.438 39.6525 153.857 39.6525 162.294C39.6525 162.915 39.6525 163.554 39.6525 164.248C51.0548 164.284 62.2379 164.284 73.622 164.284ZM79.4511 121.953C79.4511 136.143 79.4511 150.204 79.4511 164.211C102.128 164.211 124.695 164.211 147.226 164.211C147.226 150.058 147.226 136.033 147.226 121.953C124.622 121.953 102.11 121.953 79.4511 121.953ZM22.8047 138.937C22.8047 147.483 22.8047 155.866 22.8047 164.211C26.6055 164.211 30.2784 164.211 33.933 164.211C33.933 155.72 33.933 147.374 33.933 138.937C30.2053 138.937 26.569 138.937 22.8047 138.937Z" fill="#A8B23B"/>
<path d="M37.3866 23.8135C38.5013 25.3657 39.5246 26.7902 40.694 28.4155C33.0194 33.9123 27.0441 40.8518 22.8596 49.4897C21.1236 48.6679 19.4973 47.8827 17.6883 47.0244C22.2748 37.6377 28.7252 29.9312 37.3866 23.8135Z" fill="#A8B23B"/>
<path d="M45.4267 25.3109C44.4582 23.6308 43.5629 22.0785 42.5761 20.3619C45.043 19.1384 47.3819 17.9696 49.8488 16.7278C50.6345 18.554 51.3472 20.1975 52.0964 21.9689C49.8853 23.0647 47.7474 24.1239 45.4267 25.3109Z" fill="#A8B23B"/>
<path d="M45.3536 144.36C45.3536 141.712 45.3354 139.046 45.3536 136.398C45.3719 134.28 46.3769 133.239 48.4601 133.221C52.0598 133.202 55.6596 133.184 59.2594 133.221C61.2512 133.239 62.311 134.28 62.311 136.289C62.3293 141.767 62.3475 147.264 62.311 152.743C62.2927 154.824 61.2329 155.847 59.1132 155.847C55.5683 155.865 52.0416 155.865 48.4966 155.847C46.3952 155.829 45.3719 154.806 45.3536 152.688C45.3354 149.894 45.3536 147.136 45.3536 144.36ZM56.555 150.113C56.555 146.314 56.555 142.644 56.555 138.991C54.6363 138.991 52.8456 138.991 51.0914 138.991C51.0914 142.753 51.0914 146.387 51.0914 150.113C52.9187 150.113 54.6729 150.113 56.555 150.113Z" fill="#A8B23B"/>
<path d="M90.6707 144.525C90.6707 141.804 90.6524 139.101 90.6707 136.38C90.689 134.261 91.694 133.221 93.7954 133.202C97.3952 133.184 100.995 133.166 104.595 133.202C106.587 133.221 107.628 134.261 107.646 136.27C107.665 141.749 107.683 147.246 107.646 152.724C107.628 154.806 106.568 155.81 104.43 155.829C100.885 155.847 97.3586 155.847 93.8137 155.829C91.7306 155.81 90.7073 154.788 90.6707 152.651C90.6524 149.948 90.6707 147.246 90.6707 144.525ZM101.927 138.955C99.9717 138.955 98.2358 138.955 96.4267 138.955C96.4267 142.717 96.4267 146.406 96.4267 150.076C98.3271 150.076 100.118 150.076 101.927 150.076C101.927 146.314 101.927 142.68 101.927 138.955Z" fill="#A8B23B"/>
<path d="M135.988 144.707C135.988 147.355 136.006 150.021 135.988 152.669C135.97 154.788 134.928 155.829 132.845 155.847C129.3 155.865 125.773 155.865 122.228 155.847C120.09 155.829 119.03 154.824 119.03 152.742C118.994 147.264 119.012 141.767 119.03 136.289C119.03 134.28 120.072 133.239 122.082 133.221C125.737 133.184 129.391 133.184 133.046 133.221C134.928 133.239 135.97 134.316 135.988 136.215C136.006 139.046 135.988 141.877 135.988 144.707ZM130.195 150.113C130.195 146.296 130.195 142.625 130.195 138.991C128.277 138.991 126.486 138.991 124.732 138.991C124.732 142.771 124.732 146.406 124.732 150.113C126.595 150.113 128.331 150.113 130.195 150.113Z" fill="#A8B23B"/>
</g>
<defs>
<clipPath id="clip0">
<rect width="153" height="170" fill="white"/>
</clipPath>
</defs>
</svg>
